(footprint "roundrect_pad"
	(version 20240108)
	(generator "kicad-footprint-generator")
	(layer "F.Cu")
	(attr smd)
	(pad "1" smd rect
		(at 0 0)
		(size 1 1)
		(layers "F.Cu" "F.Paste" "F.Mask")
	)
	(pad "2" smd roundrect
		(at -5 0)
		(size 1 1)
		(layers "F.Cu" "F.Paste" "F.Mask")
		(roundrect_rratio 0.5)
	)
	(pad "3" smd roundrect
		(at 5 0 45)
		(size 1 1)
		(layers "F.Cu" "F.Paste" "F.Mask")
		(roundrect_rratio 0.1)
	)
)
